Scraping Baby Boy Name Trends
…
name_rank <- all_yrs %>% 
  left_join(rank2018, by=c("y18" = "rank")) %>%
  mutate(number = floor(number/.9238)) %>%
  select(name, number, pct, paste0('y', 18:10)) 

#name_rank %>% mutate(name = paste(name, 'Whiting')) %>% filter(number < 100) %>% View() #head(30)
name_rank %>% head(30)

## # A tibble: 30 x 12
##    name  number   pct   y18   y17   y16   y15   y14   y13   y12   y11   y10
##    <fct>  <dbl> <dbl> <int> <int> <int> <int> <int> <int> <int> <int> <int>
##  1 Liam   21473 1.10      1     1     2     2     2     3     6    15    30
##  2 Noah   19773 1.01      2     2     1     1     1     1     4     5     7
##  3 Will…  15713 0.806     3     3     3     5     5     5     5     3     5
##  4 James  14640 0.751     4     4     5     7     9    13    14    17    19
##  5 Oliv…  14493 0.744     5     9    12    19    32    52    73    78    88
##  6 Benj…  14484 0.743     6     6     6    10    12    14    16    19    22
##  7 Elij…  13948 0.716     7     8     9    11    11    11    13    13    18
##  8 Lucas  13623 0.699     8    11    14    16    19    23    27    29    35
##  9 Mason  13460 0.691     9     7     4     3     3     4     2     2    12
## 10 Logan  13370 0.686    10     5    18    14    13    18    22    21    17
## # … with 20 more rows
…
